{"frames": {

"1.png":
{
	"frame": {"x":1298,"y":142,"w":35,"h":94},
	"rotated": false,
	"trimmed": false,
	"spriteSourceSize": {"x":0,"y":0,"w":35,"h":94},
	"sourceSize": {"w":35,"h":94}
},
"1b.png":
{
	"frame": {"x":1,"y":194,"w":189,"h":189},
	"rotated": false,
	"trimmed": true,
	"spriteSourceSize": {"x":15,"y":0,"w":189,"h":189},
	"sourceSize": {"w":212,"h":191}
},
"2.png":
{
	"frame": {"x":214,"y":382,"w":52,"h":124},
	"rotated": false,
	"trimmed": false,
	"spriteSourceSize": {"x":0,"y":0,"w":52,"h":124},
	"sourceSize": {"w":52,"h":124}
},
"2b.png":
{
	"frame": {"x":192,"y":192,"w":169,"h":188},
	"rotated": false,
	"trimmed": true,
	"spriteSourceSize": {"x":19,"y":3,"w":169,"h":188},
	"sourceSize": {"w":212,"h":191}
},
"3.png":
{
	"frame": {"x":1190,"y":229,"w":94,"h":41},
	"rotated": false,
	"trimmed": false,
	"spriteSourceSize": {"x":0,"y":0,"w":94,"h":41},
	"sourceSize": {"w":94,"h":41}
},
"3b.png":
{
	"frame": {"x":807,"y":320,"w":205,"h":155},
	"rotated": false,
	"trimmed": true,
	"spriteSourceSize": {"x":4,"y":18,"w":205,"h":155},
	"sourceSize": {"w":212,"h":191}
},
"4.png":
{
	"frame": {"x":268,"y":489,"w":112,"h":16},
	"rotated": false,
	"trimmed": false,
	"spriteSourceSize": {"x":0,"y":0,"w":112,"h":16},
	"sourceSize": {"w":112,"h":16}
},
"4b.png":
{
	"frame": {"x":288,"y":1,"w":210,"h":184},
	"rotated": false,
	"trimmed": true,
	"spriteSourceSize": {"x":1,"y":4,"w":210,"h":184},
	"sourceSize": {"w":212,"h":191}
},
"5.png":
{
	"frame": {"x":1428,"y":441,"w":66,"h":49},
	"rotated": false,
	"trimmed": false,
	"spriteSourceSize": {"x":0,"y":0,"w":66,"h":49},
	"sourceSize": {"w":66,"h":49}
},
"5b.png":
{
	"frame": {"x":985,"y":160,"w":203,"h":151},
	"rotated": false,
	"trimmed": true,
	"spriteSourceSize": {"x":6,"y":22,"w":203,"h":151},
	"sourceSize": {"w":212,"h":191}
},
"6.png":
{
	"frame": {"x":1428,"y":372,"w":73,"h":67},
	"rotated": false,
	"trimmed": false,
	"spriteSourceSize": {"x":0,"y":0,"w":73,"h":67},
	"sourceSize": {"w":73,"h":67}
},
"6b.png":
{
	"frame": {"x":596,"y":341,"w":209,"h":166},
	"rotated": false,
	"trimmed": true,
	"spriteSourceSize": {"x":2,"y":16,"w":209,"h":166},
	"sourceSize": {"w":212,"h":191}
},
"7.png":
{
	"frame": {"x":1168,"y":323,"w":69,"h":41},
	"rotated": false,
	"trimmed": false,
	"spriteSourceSize": {"x":0,"y":0,"w":69,"h":41},
	"sourceSize": {"w":69,"h":41}
},
"7b.png":
{
	"frame": {"x":500,"y":1,"w":209,"h":168},
	"rotated": false,
	"trimmed": true,
	"spriteSourceSize": {"x":1,"y":17,"w":209,"h":168},
	"sourceSize": {"w":212,"h":191}
},
"8.png":
{
	"frame": {"x":1339,"y":69,"w":113,"h":72},
	"rotated": false,
	"trimmed": false,
	"spriteSourceSize": {"x":0,"y":0,"w":113,"h":72},
	"sourceSize": {"w":113,"h":72}
},
"8b.png":
{
	"frame": {"x":1225,"y":372,"w":201,"h":135},
	"rotated": false,
	"trimmed": true,
	"spriteSourceSize": {"x":6,"y":35,"w":201,"h":135},
	"sourceSize": {"w":212,"h":191}
},
"9.png":
{
	"frame": {"x":1190,"y":272,"w":90,"h":49},
	"rotated": false,
	"trimmed": false,
	"spriteSourceSize": {"x":0,"y":0,"w":90,"h":49},
	"sourceSize": {"w":90,"h":49}
},
"9b.png":
{
	"frame": {"x":711,"y":1,"w":211,"h":158},
	"rotated": false,
	"trimmed": true,
	"spriteSourceSize": {"x":1,"y":16,"w":211,"h":158},
	"sourceSize": {"w":212,"h":191}
},
"10.png":
{
	"frame": {"x":1454,"y":103,"w":69,"h":53},
	"rotated": false,
	"trimmed": false,
	"spriteSourceSize": {"x":0,"y":0,"w":69,"h":53},
	"sourceSize": {"w":69,"h":53}
},
"10b.png":
{
	"frame": {"x":924,"y":1,"w":202,"h":157},
	"rotated": false,
	"trimmed": true,
	"spriteSourceSize": {"x":5,"y":22,"w":202,"h":157},
	"sourceSize": {"w":212,"h":191}
},
"11.png":
{
	"frame": {"x":1335,"y":143,"w":53,"h":86},
	"rotated": false,
	"trimmed": false,
	"spriteSourceSize": {"x":0,"y":0,"w":53,"h":86},
	"sourceSize": {"w":53,"h":86}
},
"11b.png":
{
	"frame": {"x":1,"y":1,"w":129,"h":191},
	"rotated": false,
	"trimmed": true,
	"spriteSourceSize": {"x":42,"y":0,"w":129,"h":191},
	"sourceSize": {"w":212,"h":191}
},
"12.png":
{
	"frame": {"x":268,"y":382,"w":110,"h":105},
	"rotated": false,
	"trimmed": false,
	"spriteSourceSize": {"x":0,"y":0,"w":110,"h":105},
	"sourceSize": {"w":110,"h":105}
},
"12b.png":
{
	"frame": {"x":571,"y":171,"w":205,"h":168},
	"rotated": false,
	"trimmed": true,
	"spriteSourceSize": {"x":3,"y":11,"w":205,"h":168},
	"sourceSize": {"w":212,"h":191}
},
"13.png":
{
	"frame": {"x":1014,"y":323,"w":73,"h":47},
	"rotated": false,
	"trimmed": false,
	"spriteSourceSize": {"x":0,"y":0,"w":73,"h":47},
	"sourceSize": {"w":73,"h":47}
},
"13b.png":
{
	"frame": {"x":382,"y":362,"w":212,"h":144},
	"rotated": false,
	"trimmed": true,
	"spriteSourceSize": {"x":0,"y":24,"w":212,"h":144},
	"sourceSize": {"w":212,"h":191}
},
"14.png":
{
	"frame": {"x":1390,"y":179,"w":89,"h":53},
	"rotated": false,
	"trimmed": false,
	"spriteSourceSize": {"x":0,"y":0,"w":89,"h":53},
	"sourceSize": {"w":89,"h":53}
},
"14b.png":
{
	"frame": {"x":1128,"y":1,"w":209,"h":139},
	"rotated": false,
	"trimmed": true,
	"spriteSourceSize": {"x":2,"y":26,"w":209,"h":139},
	"sourceSize": {"w":212,"h":191}
},
"15.png":
{
	"frame": {"x":1339,"y":1,"w":131,"h":66},
	"rotated": false,
	"trimmed": false,
	"spriteSourceSize": {"x":0,"y":0,"w":131,"h":66},
	"sourceSize": {"w":131,"h":66}
},
"15b.png":
{
	"frame": {"x":1,"y":385,"w":211,"h":120},
	"rotated": false,
	"trimmed": true,
	"spriteSourceSize": {"x":1,"y":36,"w":211,"h":120},
	"sourceSize": {"w":212,"h":191}
},
"16.png":
{
	"frame": {"x":1390,"y":143,"w":60,"h":34},
	"rotated": false,
	"trimmed": false,
	"spriteSourceSize": {"x":0,"y":0,"w":60,"h":34},
	"sourceSize": {"w":60,"h":34}
},
"16b.png":
{
	"frame": {"x":1286,"y":238,"w":212,"h":132},
	"rotated": false,
	"trimmed": true,
	"spriteSourceSize": {"x":0,"y":30,"w":212,"h":132},
	"sourceSize": {"w":212,"h":191}
},
"17.png":
{
	"frame": {"x":1089,"y":323,"w":77,"h":44},
	"rotated": false,
	"trimmed": false,
	"spriteSourceSize": {"x":0,"y":0,"w":77,"h":44},
	"sourceSize": {"w":77,"h":44}
},
"17b.png":
{
	"frame": {"x":1014,"y":372,"w":209,"h":135},
	"rotated": false,
	"trimmed": true,
	"spriteSourceSize": {"x":2,"y":28,"w":209,"h":135},
	"sourceSize": {"w":212,"h":191}
},
"18.png":
{
	"frame": {"x":1472,"y":67,"w":47,"h":34},
	"rotated": false,
	"trimmed": false,
	"spriteSourceSize": {"x":0,"y":0,"w":47,"h":34},
	"sourceSize": {"w":47,"h":34}
},
"18b.png":
{
	"frame": {"x":778,"y":161,"w":205,"h":157},
	"rotated": false,
	"trimmed": true,
	"spriteSourceSize": {"x":4,"y":17,"w":205,"h":157},
	"sourceSize": {"w":212,"h":191}
},
"19.png":
{
	"frame": {"x":1472,"y":1,"w":51,"h":64},
	"rotated": false,
	"trimmed": false,
	"spriteSourceSize": {"x":0,"y":0,"w":51,"h":64},
	"sourceSize": {"w":51,"h":64}
},
"19b.png":
{
	"frame": {"x":132,"y":1,"w":154,"h":189},
	"rotated": false,
	"trimmed": true,
	"spriteSourceSize": {"x":29,"y":1,"w":154,"h":189},
	"sourceSize": {"w":212,"h":191}
},
"20.png":
{
	"frame": {"x":1190,"y":142,"w":106,"h":85},
	"rotated": false,
	"trimmed": false,
	"spriteSourceSize": {"x":0,"y":0,"w":106,"h":85},
	"sourceSize": {"w":106,"h":85}
},
"20b.png":
{
	"frame": {"x":363,"y":187,"w":206,"h":173},
	"rotated": false,
	"trimmed": true,
	"spriteSourceSize": {"x":3,"y":9,"w":206,"h":173},
	"sourceSize": {"w":212,"h":191}
}},
"meta": {
	"app": "http://www.codeandweb.com/texturepacker",
	"version": "1.0",
	"image": "JsonData.png",
	"format": "RGBA8888",
	"size": {"w":1524,"h":508},
	"scale": "1",
	"smartupdate": "$TexturePacker:SmartUpdate:7fed02d37a421877bdfcbc625dd15eac:9f7e36ab1f18e95a5a94e9c6ec3d7f9a:793c45d93868c9e45f17a619bd1c0fd8$"
}
}
