{"frames": {

"button masuk daftar.png":
{
	"frame": {"x":1,"y":568,"w":432,"h":76},
	"rotated": false,
	"trimmed": false,
	"spriteSourceSize": {"x":0,"y":0,"w":432,"h":76},
	"sourceSize": {"w":432,"h":76}
},
"container warning.png":
{
	"frame": {"x":1,"y":1,"w":767,"h":565},
	"rotated": false,
	"trimmed": false,
	"spriteSourceSize": {"x":0,"y":0,"w":767,"h":565},
	"sourceSize": {"w":767,"h":565}
}},
"meta": {
	"app": "http://www.codeandweb.com/texturepacker",
	"version": "1.0",
	"image": "JsonData.png",
	"format": "RGBA8888",
	"size": {"w":769,"h":645},
	"scale": "1",
	"smartupdate": "$TexturePacker:SmartUpdate:f48857d3c13140843bf84eb6124b9a5a:6b73adf3ac8f12b9da4da0249cad66c6:793c45d93868c9e45f17a619bd1c0fd8$"
}
}
