{"frames": {

"1.png":
{
	"frame": {"x":1022,"y":376,"w":66,"h":60},
	"rotated": false,
	"trimmed": false,
	"spriteSourceSize": {"x":0,"y":0,"w":66,"h":60},
	"sourceSize": {"w":66,"h":60}
},
"1b.png":
{
	"frame": {"x":1,"y":361,"w":180,"h":142},
	"rotated": false,
	"trimmed": true,
	"spriteSourceSize": {"x":16,"y":25,"w":180,"h":142},
	"sourceSize": {"w":212,"h":191}
},
"2.png":
{
	"frame": {"x":1090,"y":376,"w":54,"h":51},
	"rotated": false,
	"trimmed": false,
	"spriteSourceSize": {"x":0,"y":0,"w":54,"h":51},
	"sourceSize": {"w":54,"h":51}
},
"2b.png":
{
	"frame": {"x":676,"y":187,"w":155,"h":143},
	"rotated": false,
	"trimmed": true,
	"spriteSourceSize": {"x":30,"y":28,"w":155,"h":143},
	"sourceSize": {"w":212,"h":191}
},
"3.png":
{
	"frame": {"x":623,"y":459,"w":57,"h":32},
	"rotated": false,
	"trimmed": false,
	"spriteSourceSize": {"x":0,"y":0,"w":57,"h":32},
	"sourceSize": {"w":57,"h":32}
},
"3b.png":
{
	"frame": {"x":206,"y":174,"w":164,"h":98},
	"rotated": false,
	"trimmed": true,
	"spriteSourceSize": {"x":24,"y":46,"w":164,"h":98},
	"sourceSize": {"w":212,"h":191}
},
"4.png":
{
	"frame": {"x":682,"y":459,"w":52,"h":42},
	"rotated": false,
	"trimmed": false,
	"spriteSourceSize": {"x":0,"y":0,"w":52,"h":42},
	"sourceSize": {"w":52,"h":42}
},
"4b.png":
{
	"frame": {"x":1,"y":194,"w":198,"h":165},
	"rotated": false,
	"trimmed": true,
	"spriteSourceSize": {"x":6,"y":14,"w":198,"h":165},
	"sourceSize": {"w":212,"h":191}
},
"5.png":
{
	"frame": {"x":736,"y":459,"w":32,"h":24},
	"rotated": false,
	"trimmed": false,
	"spriteSourceSize": {"x":0,"y":0,"w":32,"h":24},
	"sourceSize": {"w":32,"h":24}
},
"5b.png":
{
	"frame": {"x":1022,"y":188,"w":130,"h":186},
	"rotated": false,
	"trimmed": true,
	"spriteSourceSize": {"x":41,"y":3,"w":130,"h":186},
	"sourceSize": {"w":212,"h":191}
},
"6.png":
{
	"frame": {"x":206,"y":1,"w":167,"h":171},
	"rotated": false,
	"trimmed": false,
	"spriteSourceSize": {"x":0,"y":0,"w":167,"h":171},
	"sourceSize": {"w":167,"h":171}
},
"6b.png":
{
	"frame": {"x":1,"y":1,"w":203,"h":191},
	"rotated": false,
	"trimmed": true,
	"spriteSourceSize": {"x":5,"y":0,"w":203,"h":191},
	"sourceSize": {"w":212,"h":191}
},
"7.png":
{
	"frame": {"x":285,"y":330,"w":62,"h":29},
	"rotated": false,
	"trimmed": false,
	"spriteSourceSize": {"x":0,"y":0,"w":62,"h":29},
	"sourceSize": {"w":62,"h":29}
},
"7b.png":
{
	"frame": {"x":686,"y":1,"w":203,"h":99},
	"rotated": false,
	"trimmed": true,
	"spriteSourceSize": {"x":5,"y":46,"w":203,"h":99},
	"sourceSize": {"w":212,"h":191}
},
"8.png":
{
	"frame": {"x":770,"y":467,"w":45,"h":33},
	"rotated": false,
	"trimmed": false,
	"spriteSourceSize": {"x":0,"y":0,"w":45,"h":33},
	"sourceSize": {"w":45,"h":33}
},
"8b.png":
{
	"frame": {"x":833,"y":204,"w":152,"h":124},
	"rotated": false,
	"trimmed": true,
	"spriteSourceSize": {"x":30,"y":34,"w":152,"h":124},
	"sourceSize": {"w":212,"h":191}
},
"9.png":
{
	"frame": {"x":859,"y":467,"w":27,"h":32},
	"rotated": false,
	"trimmed": false,
	"spriteSourceSize": {"x":0,"y":0,"w":27,"h":32},
	"sourceSize": {"w":27,"h":32}
},
"9b.png":
{
	"frame": {"x":902,"y":330,"w":118,"h":153},
	"rotated": false,
	"trimmed": true,
	"spriteSourceSize": {"x":48,"y":19,"w":118,"h":153},
	"sourceSize": {"w":212,"h":191}
},
"10.png":
{
	"frame": {"x":987,"y":204,"w":25,"h":52},
	"rotated": false,
	"trimmed": false,
	"spriteSourceSize": {"x":0,"y":0,"w":25,"h":52},
	"sourceSize": {"w":25,"h":52}
},
"10b.png":
{
	"frame": {"x":1081,"y":1,"w":89,"h":152},
	"rotated": false,
	"trimmed": true,
	"spriteSourceSize": {"x":62,"y":19,"w":89,"h":152},
	"sourceSize": {"w":212,"h":191}
},
"11.png":
{
	"frame": {"x":285,"y":274,"w":74,"h":54},
	"rotated": false,
	"trimmed": false,
	"spriteSourceSize": {"x":0,"y":0,"w":74,"h":54},
	"sourceSize": {"w":74,"h":54}
},
"11b.png":
{
	"frame": {"x":372,"y":185,"w":162,"h":124},
	"rotated": false,
	"trimmed": true,
	"spriteSourceSize": {"x":26,"y":34,"w":162,"h":124},
	"sourceSize": {"w":212,"h":191}
},
"12.png":
{
	"frame": {"x":987,"y":258,"w":25,"h":33},
	"rotated": false,
	"trimmed": false,
	"spriteSourceSize": {"x":0,"y":0,"w":25,"h":33},
	"sourceSize": {"w":25,"h":33}
},
"12b.png":
{
	"frame": {"x":502,"y":321,"w":119,"h":158},
	"rotated": false,
	"trimmed": true,
	"spriteSourceSize": {"x":47,"y":17,"w":119,"h":158},
	"sourceSize": {"w":212,"h":191}
},
"13.png":
{
	"frame": {"x":1022,"y":438,"w":64,"h":33},
	"rotated": false,
	"trimmed": false,
	"spriteSourceSize": {"x":0,"y":0,"w":64,"h":33},
	"sourceSize": {"w":64,"h":33}
},
"13b.png":
{
	"frame": {"x":854,"y":113,"w":165,"h":89},
	"rotated": false,
	"trimmed": true,
	"spriteSourceSize": {"x":25,"y":53,"w":165,"h":89},
	"sourceSize": {"w":212,"h":191}
},
"14.png":
{
	"frame": {"x":817,"y":467,"w":40,"h":34},
	"rotated": false,
	"trimmed": false,
	"spriteSourceSize": {"x":0,"y":0,"w":40,"h":34},
	"sourceSize": {"w":40,"h":34}
},
"14b.png":
{
	"frame": {"x":623,"y":332,"w":145,"h":125},
	"rotated": false,
	"trimmed": true,
	"spriteSourceSize": {"x":34,"y":34,"w":145,"h":125},
	"sourceSize": {"w":212,"h":191}
},
"15.png":
{
	"frame": {"x":201,"y":274,"w":82,"h":63},
	"rotated": false,
	"trimmed": false,
	"spriteSourceSize": {"x":0,"y":0,"w":82,"h":63},
	"sourceSize": {"w":82,"h":63}
},
"15b.png":
{
	"frame": {"x":183,"y":361,"w":179,"h":142},
	"rotated": false,
	"trimmed": true,
	"spriteSourceSize": {"x":16,"y":25,"w":179,"h":142},
	"sourceSize": {"w":212,"h":191}
},
"16.png":
{
	"frame": {"x":1021,"y":113,"w":49,"h":73},
	"rotated": false,
	"trimmed": false,
	"spriteSourceSize": {"x":0,"y":0,"w":49,"h":73},
	"sourceSize": {"w":49,"h":73}
},
"16b.png":
{
	"frame": {"x":536,"y":163,"w":138,"h":156},
	"rotated": false,
	"trimmed": true,
	"spriteSourceSize": {"x":37,"y":17,"w":138,"h":156},
	"sourceSize": {"w":212,"h":191}
},
"17.png":
{
	"frame": {"x":1072,"y":155,"w":71,"h":31},
	"rotated": false,
	"trimmed": false,
	"spriteSourceSize": {"x":0,"y":0,"w":71,"h":31},
	"sourceSize": {"w":71,"h":31}
},
"17b.png":
{
	"frame": {"x":686,"y":102,"w":166,"h":83},
	"rotated": false,
	"trimmed": true,
	"spriteSourceSize": {"x":23,"y":54,"w":166,"h":83},
	"sourceSize": {"w":212,"h":191}
},
"18.png":
{
	"frame": {"x":364,"y":332,"w":136,"h":171},
	"rotated": false,
	"trimmed": false,
	"spriteSourceSize": {"x":0,"y":0,"w":136,"h":171},
	"sourceSize": {"w":136,"h":171}
},
"18b.png":
{
	"frame": {"x":375,"y":1,"w":150,"h":182},
	"rotated": false,
	"trimmed": true,
	"spriteSourceSize": {"x":32,"y":4,"w":150,"h":182},
	"sourceSize": {"w":212,"h":191}
},
"19.png":
{
	"frame": {"x":770,"y":332,"w":130,"h":133},
	"rotated": false,
	"trimmed": false,
	"spriteSourceSize": {"x":0,"y":0,"w":130,"h":133},
	"sourceSize": {"w":130,"h":133}
},
"19b.png":
{
	"frame": {"x":527,"y":1,"w":157,"h":160},
	"rotated": false,
	"trimmed": true,
	"spriteSourceSize": {"x":27,"y":17,"w":157,"h":160},
	"sourceSize": {"w":212,"h":191}
},
"20.png":
{
	"frame": {"x":1090,"y":429,"w":51,"h":37},
	"rotated": false,
	"trimmed": false,
	"spriteSourceSize": {"x":0,"y":0,"w":51,"h":37},
	"sourceSize": {"w":51,"h":37}
},
"20b.png":
{
	"frame": {"x":891,"y":1,"w":188,"h":110},
	"rotated": false,
	"trimmed": true,
	"spriteSourceSize": {"x":13,"y":40,"w":188,"h":110},
	"sourceSize": {"w":212,"h":191}
}},
"meta": {
	"app": "http://www.codeandweb.com/texturepacker",
	"version": "1.0",
	"image": "JsonData.png",
	"format": "RGBA8888",
	"size": {"w":1171,"h":504},
	"scale": "1",
	"smartupdate": "$TexturePacker:SmartUpdate:2817e8e9dad9b018f27f3fc688fa5950:94ebef941cf9d195c9eeb4d05b5ea897:793c45d93868c9e45f17a619bd1c0fd8$"
}
}
