{"frames": {

"1.png":
{
	"frame": {"x":1035,"y":226,"w":118,"h":150},
	"rotated": false,
	"trimmed": false,
	"spriteSourceSize": {"x":0,"y":0,"w":118,"h":150},
	"sourceSize": {"w":118,"h":150}
},
"1b.png":
{
	"frame": {"x":363,"y":191,"w":145,"h":186},
	"rotated": false,
	"trimmed": true,
	"spriteSourceSize": {"x":34,"y":3,"w":145,"h":186},
	"sourceSize": {"w":212,"h":191}
},
"2.png":
{
	"frame": {"x":1,"y":1,"w":198,"h":256},
	"rotated": false,
	"trimmed": false,
	"spriteSourceSize": {"x":0,"y":0,"w":198,"h":256},
	"sourceSize": {"w":198,"h":256}
},
"2b.png":
{
	"frame": {"x":1258,"y":259,"w":147,"h":186},
	"rotated": false,
	"trimmed": true,
	"spriteSourceSize": {"x":32,"y":0,"w":147,"h":186},
	"sourceSize": {"w":212,"h":191}
},
"3.png":
{
	"frame": {"x":510,"y":341,"w":71,"h":32},
	"rotated": false,
	"trimmed": false,
	"spriteSourceSize": {"x":0,"y":0,"w":71,"h":32},
	"sourceSize": {"w":71,"h":32}
},
"3b.png":
{
	"frame": {"x":1,"y":259,"w":202,"h":160},
	"rotated": false,
	"trimmed": true,
	"spriteSourceSize": {"x":5,"y":15,"w":202,"h":160},
	"sourceSize": {"w":212,"h":191}
},
"4.png":
{
	"frame": {"x":1,"y":421,"w":110,"h":69},
	"rotated": false,
	"trimmed": false,
	"spriteSourceSize": {"x":0,"y":0,"w":110,"h":69},
	"sourceSize": {"w":110,"h":69}
},
"4b.png":
{
	"frame": {"x":1058,"y":1,"w":204,"h":137},
	"rotated": false,
	"trimmed": true,
	"spriteSourceSize": {"x":4,"y":30,"w":204,"h":137},
	"sourceSize": {"w":212,"h":191}
},
"5.png":
{
	"frame": {"x":409,"y":1,"w":233,"h":132},
	"rotated": false,
	"trimmed": false,
	"spriteSourceSize": {"x":0,"y":0,"w":233,"h":132},
	"sourceSize": {"w":233,"h":132}
},
"5b.png":
{
	"frame": {"x":1264,"y":1,"w":205,"h":128},
	"rotated": false,
	"trimmed": true,
	"spriteSourceSize": {"x":5,"y":46,"w":205,"h":128},
	"sourceSize": {"w":212,"h":191}
},
"6.png":
{
	"frame": {"x":438,"y":135,"w":57,"h":52},
	"rotated": false,
	"trimmed": false,
	"spriteSourceSize": {"x":0,"y":0,"w":57,"h":52},
	"sourceSize": {"w":57,"h":52}
},
"6b.png":
{
	"frame": {"x":835,"y":226,"w":198,"h":128},
	"rotated": false,
	"trimmed": true,
	"spriteSourceSize": {"x":6,"y":44,"w":198,"h":128},
	"sourceSize": {"w":212,"h":191}
},
"7.png":
{
	"frame": {"x":1087,"y":378,"w":55,"h":81},
	"rotated": false,
	"trimmed": false,
	"spriteSourceSize": {"x":0,"y":0,"w":55,"h":81},
	"sourceSize": {"w":55,"h":81}
},
"7b.png":
{
	"frame": {"x":644,"y":1,"w":205,"h":154},
	"rotated": false,
	"trimmed": true,
	"spriteSourceSize": {"x":4,"y":27,"w":205,"h":154},
	"sourceSize": {"w":212,"h":191}
},
"8.png":
{
	"frame": {"x":639,"y":297,"w":162,"h":96},
	"rotated": false,
	"trimmed": false,
	"spriteSourceSize": {"x":0,"y":0,"w":162,"h":96},
	"sourceSize": {"w":162,"h":96}
},
"8b.png":
{
	"frame": {"x":205,"y":379,"w":207,"h":120},
	"rotated": false,
	"trimmed": true,
	"spriteSourceSize": {"x":5,"y":36,"w":207,"h":120},
	"sourceSize": {"w":212,"h":191}
},
"9.png":
{
	"frame": {"x":409,"y":135,"w":27,"h":54},
	"rotated": false,
	"trimmed": false,
	"spriteSourceSize": {"x":0,"y":0,"w":27,"h":54},
	"sourceSize": {"w":27,"h":54}
},
"9b.png":
{
	"frame": {"x":851,"y":1,"w":205,"h":150},
	"rotated": false,
	"trimmed": true,
	"spriteSourceSize": {"x":3,"y":26,"w":205,"h":150},
	"sourceSize": {"w":212,"h":191}
},
"10.png":
{
	"frame": {"x":510,"y":304,"w":112,"h":35},
	"rotated": false,
	"trimmed": false,
	"spriteSourceSize": {"x":0,"y":0,"w":112,"h":35},
	"sourceSize": {"w":112,"h":35}
},
"10b.png":
{
	"frame": {"x":1058,"y":140,"w":209,"h":81},
	"rotated": false,
	"trimmed": true,
	"spriteSourceSize": {"x":1,"y":66,"w":209,"h":81},
	"sourceSize": {"w":212,"h":191}
},
"11.png":
{
	"frame": {"x":113,"y":421,"w":57,"h":61},
	"rotated": false,
	"trimmed": true,
	"spriteSourceSize": {"x":0,"y":2,"w":57,"h":61},
	"sourceSize": {"w":58,"h":63}
},
"11b.png":
{
	"frame": {"x":414,"y":379,"w":195,"h":120},
	"rotated": false,
	"trimmed": true,
	"spriteSourceSize": {"x":9,"y":38,"w":195,"h":120},
	"sourceSize": {"w":212,"h":191}
},
"12.png":
{
	"frame": {"x":755,"y":395,"w":114,"h":97},
	"rotated": false,
	"trimmed": false,
	"spriteSourceSize": {"x":0,"y":0,"w":114,"h":97},
	"sourceSize": {"w":114,"h":97}
},
"12b.png":
{
	"frame": {"x":205,"y":191,"w":156,"h":186},
	"rotated": false,
	"trimmed": true,
	"spriteSourceSize": {"x":29,"y":5,"w":156,"h":186},
	"sourceSize": {"w":212,"h":191}
},
"13.png":
{
	"frame": {"x":611,"y":395,"w":142,"h":86},
	"rotated": false,
	"trimmed": false,
	"spriteSourceSize": {"x":0,"y":0,"w":142,"h":86},
	"sourceSize": {"w":142,"h":86}
},
"13b.png":
{
	"frame": {"x":1269,"y":131,"w":198,"h":126},
	"rotated": false,
	"trimmed": true,
	"spriteSourceSize": {"x":7,"y":33,"w":198,"h":126},
	"sourceSize": {"w":212,"h":191}
},
"14.png":
{
	"frame": {"x":1014,"y":378,"w":71,"h":97},
	"rotated": false,
	"trimmed": false,
	"spriteSourceSize": {"x":0,"y":0,"w":71,"h":97},
	"sourceSize": {"w":71,"h":97}
},
"14b.png":
{
	"frame": {"x":1471,"y":1,"w":90,"h":191},
	"rotated": false,
	"trimmed": true,
	"spriteSourceSize": {"x":61,"y":0,"w":90,"h":191},
	"sourceSize": {"w":212,"h":191}
},
"15.png":
{
	"frame": {"x":1407,"y":259,"w":48,"h":43},
	"rotated": false,
	"trimmed": false,
	"spriteSourceSize": {"x":0,"y":0,"w":48,"h":43},
	"sourceSize": {"w":48,"h":43}
},
"15b.png":
{
	"frame": {"x":639,"y":157,"w":194,"h":138},
	"rotated": false,
	"trimmed": true,
	"spriteSourceSize": {"x":9,"y":27,"w":194,"h":138},
	"sourceSize": {"w":212,"h":191}
},
"16.png":
{
	"frame": {"x":871,"y":356,"w":78,"h":136},
	"rotated": false,
	"trimmed": false,
	"spriteSourceSize": {"x":0,"y":0,"w":78,"h":136},
	"sourceSize": {"w":78,"h":136}
},
"16b.png":
{
	"frame": {"x":1155,"y":223,"w":101,"h":172},
	"rotated": false,
	"trimmed": true,
	"spriteSourceSize": {"x":55,"y":19,"w":101,"h":172},
	"sourceSize": {"w":212,"h":191}
},
"17.png":
{
	"frame": {"x":1196,"y":397,"w":48,"h":46},
	"rotated": false,
	"trimmed": false,
	"spriteSourceSize": {"x":0,"y":0,"w":48,"h":46},
	"sourceSize": {"w":48,"h":46}
},
"17b.png":
{
	"frame": {"x":510,"y":135,"w":127,"h":167},
	"rotated": false,
	"trimmed": true,
	"spriteSourceSize": {"x":42,"y":11,"w":127,"h":167},
	"sourceSize": {"w":212,"h":191}
},
"18.png":
{
	"frame": {"x":1144,"y":397,"w":50,"h":65},
	"rotated": false,
	"trimmed": true,
	"spriteSourceSize": {"x":1,"y":0,"w":50,"h":65},
	"sourceSize": {"w":51,"h":66}
},
"18b.png":
{
	"frame": {"x":851,"y":153,"w":204,"h":71},
	"rotated": false,
	"trimmed": true,
	"spriteSourceSize": {"x":5,"y":59,"w":204,"h":71},
	"sourceSize": {"w":212,"h":191}
},
"19.png":
{
	"frame": {"x":951,"y":356,"w":61,"h":111},
	"rotated": false,
	"trimmed": true,
	"spriteSourceSize": {"x":0,"y":0,"w":61,"h":111},
	"sourceSize": {"w":61,"h":124}
},
"19b.png":
{
	"frame": {"x":201,"y":1,"w":206,"h":188},
	"rotated": false,
	"trimmed": true,
	"spriteSourceSize": {"x":0,"y":0,"w":206,"h":188},
	"sourceSize": {"w":212,"h":191}
},
"20.png":
{
	"frame": {"x":1469,"y":194,"w":91,"h":110},
	"rotated": false,
	"trimmed": false,
	"spriteSourceSize": {"x":0,"y":0,"w":91,"h":110},
	"sourceSize": {"w":91,"h":110}
},
"20b.png":
{
	"frame": {"x":1407,"y":306,"w":123,"h":159},
	"rotated": false,
	"trimmed": true,
	"spriteSourceSize": {"x":44,"y":16,"w":123,"h":159},
	"sourceSize": {"w":212,"h":191}
}},
"meta": {
	"app": "http://www.codeandweb.com/texturepacker",
	"version": "1.0",
	"image": "JsonData.png",
	"format": "RGBA8888",
	"size": {"w":1562,"h":500},
	"scale": "1",
	"smartupdate": "$TexturePacker:SmartUpdate:6da16b5c2fc0430eddb706baaab7a390:308a152aca33290475f9183ff91bb444:793c45d93868c9e45f17a619bd1c0fd8$"
}
}
